{
    "KPlugin": {
        "Authors": [
            {
                "Email": "kexi@kde.org",
                "Name": "KEXI Team",
                "Name[ca@valencia]": "L'equip del KEXI",
                "Name[ca]": "L'equip del KEXI",
                "Name[de]": "Kexi-Team",
                "Name[es]": "Equipo de KEXI",
                "Name[gl]": "Equipo de KEXI",
                "Name[it]": "La squadra di KEXI",
                "Name[nl]": "Het team van KEXI",
                "Name[pt]": "Equipa do Kexi",
                "Name[sv]": "Kexi-gruppen",
                "Name[uk]": "Команда KEXI",
                "Name[x-test]": "xxKEXI Teamxx"
            }
        ],
        "Category": "",
        "Dependencies": [
            "org.kde.kdb.mysql"
        ],
        "Description": "MySQL database import plugin for KEXI",
        "Description[ca@valencia]": "Connector d'importació de la base de dades MySQL pel KEXI",
        "Description[ca]": "Connector d'importació de la base de dades MySQL pel KEXI",
        "Description[de]": "MySQL-Datenbank-Importmodul für Kexi",
        "Description[es]": "Complemento de importación de bases de datos MySQL para KEXI",
        "Description[gl]": "Complemento para KEXI de importación de base de datos MySQL.",
        "Description[it]": "Estensione di importazione banche dati MySQL per KEXI",
        "Description[nl]": "MySQL database-importplug-in voor KEXI",
        "Description[pt]": "'Plugin' de importação do MySQL para o Kexi",
        "Description[sv]": "Importinsticksprogram av MySQL-databaser för KEXI",
        "Description[uk]": "Додаток імпортування баз даних з MySQL для KEXI",
        "Description[x-test]": "xxMySQL database import plugin for KEXIxx",
        "EnabledByDefault": true,
        "Icon": "",
        "Id": "org.kexi-project.migration.mysql",
        "License": "LGPL",
        "MimeTypes": [],
        "Name": "MySQL",
        "Name[x-test]": "xxMySQLxx",
        "ServiceTypes": [
            "Kexi/MigrationDriver"
        ],
        "Version": "3.2",
        "Website": "http://kexi-project.org"
    },
    "X-Kexi-FileBased": "false",
    "X-Kexi-SupportedSourceDrivers": [
        "org.kde.kdb.mysql"
    ]
}
