{
    "KPlugin": {
        "Authors": [
            {
                "Email": "kexi@kde.org",
                "Name": "KEXI Team",
                "Name[ca@valencia]": "L'equip del KEXI",
                "Name[ca]": "L'equip del KEXI",
                "Name[de]": "Kexi-Team",
                "Name[es]": "Equipo de KEXI",
                "Name[gl]": "Equipo de KEXI",
                "Name[it]": "La squadra di KEXI",
                "Name[nl]": "Het team van KEXI",
                "Name[pt]": "Equipa do Kexi",
                "Name[sv]": "Kexi-gruppen",
                "Name[uk]": "Команда KEXI",
                "Name[x-test]": "xxKEXI Teamxx"
            }
        ],
        "Category": "",
        "Dependencies": [],
        "Description": "KEXI plugin providing web browser form widget",
        "Description[ca@valencia]": "Connector del KEXI que proporciona estris de formularis de navegació web",
        "Description[ca]": "Connector del KEXI que proporciona estris de formularis de navegació web",
        "Description[de]": "Kexi-Modul, das ein Webbrowser-Bedienelement bereitstellt",
        "Description[es]": "Complemento de KEXI que proporciona un elemento gráfico de formulario para navegación web",
        "Description[gl]": "Complemento para KEXI que fornece un trebello de navegador web para formularios.",
        "Description[it]": "Estensione che fornisce l'oggetto del browser web per KEXI",
        "Description[nl]": "KEXI-plug-in levert formulierwidget voor webbrowser",
        "Description[pt]": "'Plugin' do Kexi que oferece um elemento gráfico de navegação Web",
        "Description[sv]": "KEXI-insticksprogram som tillhandahåller formulärkomponent med webbläsare",
        "Description[uk]": "Додаток до KEXI, що забезпечує роботу форми віджета навігатора інтернетом",
        "Description[x-test]": "xxKEXI plugin providing web browser form widgetxx",
        "EnabledByDefault": true,
        "Icon": "kexiform-web-browser",
        "Id": "org.kexi-project.form.widgets.web-browser",
        "License": "LGPL",
        "Name": "Web browser widget",
        "Name[ca@valencia]": "Estri navegador web",
        "Name[ca]": "Estri navegador web",
        "Name[cs]": "Widget webového prohlížeče",
        "Name[de]": "Webbrowser-Bedienelement",
        "Name[es]": "Elemento gráfico de navegación web",
        "Name[fr]": "Composant de navigation web",
        "Name[gl]": "Trebello de navegador web",
        "Name[it]": "Oggetto del browser web",
        "Name[nl]": "Webbrowserwidget",
        "Name[pl]": "Elementy interfejsu przeglądarki sieci",
        "Name[pt]": "Elemento de navegação Web",
        "Name[pt_BR]": "Widget do navegador Web",
        "Name[sk]": "Widget Webový prehliadač",
        "Name[sv]": "Webbläsarkomponent",
        "Name[tr]": "Web tarayıcı programcığı",
        "Name[uk]": "Віджет перегляду інтернету",
        "Name[x-test]": "xxWeb browser widgetxx",
        "ServiceTypes": [
            "Kexi/FormWidget"
        ],
        "Version": "3.2",
        "Website": "http://kexi-project.org"
    },
    "X-Kexi-FormWidgetsFactoryGroup": ""
}
